Programming Homework
…
 .                .  dataframe                     . 

                                 .       t  .

data %>% group_by(county.Name) %>% summarise(mean=mean(AQI),lowerbound=t.test(AQI)$conf.int[1],upperbound=t.test(AQI)$conf.int[2])

## # A tibble: 815 x 4
##    county.Name  mean lowerbound upperbound
##    <fct>       <dbl>      <dbl>      <dbl>
##  1 Ada          44.1       42.1       46.1
##  2 Adair        39.6       38.0       41.2
##  3 Adams        35.4       34.4       36.4
##  4 Adjuntas     15.3       13.2       17.5
##  5 Aiken        38.4       36.8       40.1
##  6 Alachua      34.8       33.6       35.9
##  7 Alameda      56.4       53.6       59.3
##  8 Alamosa      21.1       19.5       22.8
##  9 Albany       45.6       44.5       46.8
## 10 Albemarle    36.1       34.5       37.6
## #  with 805 more rows
…
